{
    "name": "TrickyTribe.Parser",
    "rootNamespace": "",
    "references": [
        "GUID:d8b63aba1907145bea998dd612889d6b",
        "GUID:0049e92db802f4ae0868e1f43cf5bc91",
        "GUID:813e818b2e0cc452285af83d60460819"
    ],
    "includePlatforms": [],
    "excludePlatforms": [],
    "allowUnsafeCode": false,
    "overrideReferences": false,
    "precompiledReferences": [],
    "autoReferenced": true,
    "defineConstraints": [],
    "versionDefines": [],
    "noEngineReferences": false
}